{
  "name": "baldurmen-xerox",
  "version": "2.0.0",
  "author": "Louis-Philippe Véronneau",
  "summary": "Simple puppet module to configure Xerox multi-function printers.",
  "license": "GPL-3.0",
  "source": "https://gitlab.com/baldurmen/puppet-xerox",
  "project_page": "https://gitlab.com/baldurmen/puppet-xerox",
  "issues_url": "https://gitlab.com/baldurmen/puppet-xerox/issues",
  "operatingsystem_support": [
    {
      "operatingsystem": "Debian",
      "operatingsystemrelease": [
        "8",
        "9"
      ]
    }
  ],
  "dependencies": [],
  "requirements": [
    {
      "name": "puppet",
      "version_requirement": "4.X"
    }
  ],
  "description": "This module makes it easy to install and manage Xerox multi-function printers on client computers running Linux."
}
